…
## Answer Questions

### Problem 1.1

Aisles_id

``` r
instacart %>%
  group_by(aisle) %>%
  summarise(n_aisles = n()) %>%
  arrange(desc(n_aisles))
## # A tibble: 134 × 2
##    aisle                         n_aisles
##    <chr>                            <int>
##  1 fresh vegetables                150609
##  2 fresh fruits                    150473
##  3 packaged vegetables fruits       78493
##  4 yogurt                           55240
##  5 packaged cheese                  41699
##  6 water seltzer sparkling water    36617
##  7 milk                             32644
##  8 chips pretzels                   31269
##  9 soy lactosefree                  26240
## 10 bread                            23635
## # … with 124 more rows
```
…
## load data

``` r
accel = 
  read_csv(
    "data/accel_data.csv") %>% 
  janitor::clean_names() %>% 
  mutate(weekday = ifelse(day == "Saturday" | day == "Sunday" , "weekend", "weekday"))  %>% 
  pivot_longer(
    activity_1:activity_1440,
    names_to = "minute", 
    names_prefix = "activity_",
    values_to = "activity_counts") 
accel
## # A tibble: 50,400 × 6
##     week day_id day    weekday minute activity_counts
##    <dbl>  <dbl> <chr>  <chr>   <chr>            <dbl>
##  1     1      1 Friday weekday 1                 88.4
##  2     1      1 Friday weekday 2                 82.2
##  3     1      1 Friday weekday 3                 64.4
##  4     1      1 Friday weekday 4                 70.0
##  5     1      1 Friday weekday 5                 75.0
##  6     1      1 Friday weekday 6                 66.3
##  7     1      1 Friday weekday 7                 53.8
##  8     1      1 Friday weekday 8                 47.8
##  9     1      1 Friday weekday 9                 55.5
## 10     1      1 Friday weekday 10                43.0
## # … with 50,390 more rows
```
…
